{
  "project_info": {
    "project_number": "461418547265",
    "firebase_url": "https://fosterhome-d2017.firebaseio.com",
    "project_id": "fosterhome-d2017",
    "storage_bucket": "fosterhome-d2017.appspot.com"
  },
  "client": [
    {
      "client_info": {
        "mobilesdk_app_id": "1:461418547265:android:ebf748ad3ba7d4e4395ec0",
        "android_client_info": {
          "package_name": "com.example.login_provider"
        }
      },
      "oauth_client": [
        {
          "client_id": "461418547265-e8n5mjn15ra5056qn481fv350ioq78d1.apps.googleusercontent.com",
          "client_type": 1,
          "android_info": {
            "package_name": "com.example.login_provider",
            "certificate_hash": "71425d8afaf343f8c4b44fd3a5949cc205d9ae2e"
          }
        },
        {
          "client_id": "461418547265-2v5pedm9rqpcj54ntckjppef4g80kr0t.apps.googleusercontent.com",
          "client_type": 3
        }
      ],
      "api_key": [
        {
          "current_key": "AIzaSyAfQCEi06k_NGzgmxx9qPRjhVO0OO3b5zI"
        }
      ],
      "services": {
        "appinvite_service": {
          "other_platform_oauth_client": [
            {
              "client_id": "461418547265-2v5pedm9rqpcj54ntckjppef4g80kr0t.apps.googleusercontent.com",
              "client_type": 3
            }
          ]
        }
      }
    }
  ],
  "configuration_version": "1"
}